<?xml version="1.0" encoding="utf-8"?>
<!DOCTYPE svg PUBLIC "-//W3C//DTD SVG 1.0//EN" "http://www.w3.org/TR/2001/REC-SVG-20010904/DTD/svg10.dtd">
<svg version="1.0" id="Layer_1" xmlns="http://www.w3.org/2000/svg" xmlns:xlink="http://www.w3.org/1999/xlink" x="0px" y="0px"
	 width="292px" height="292px" viewBox="0 0 292 292" enable-background="new 0 0 292 292" xml:space="preserve">
<g>
	<linearGradient id="SVGID_1_" gradientUnits="userSpaceOnUse" x1="53.9238" y1="118.252" x2="152.7007" y2="118.252">
		<stop  offset="0.0056" style="stop-color:#8B5C29"/>
		<stop  offset="1" style="stop-color:#C0905E"/>
	</linearGradient>
	<polygon fill="url(#SVGID_1_)" points="60.6,167.31 53.924,81.962 152.701,69.193 151.927,146.502 	"/>
	<linearGradient id="SVGID_2_" gradientUnits="userSpaceOnUse" x1="151.9268" y1="139.4834" x2="241.292" y2="139.4834">
		<stop  offset="0" style="stop-color:#CB8F51"/>
		<stop  offset="1" style="stop-color:#8B5C29"/>
	</linearGradient>
	<polygon fill="url(#SVGID_2_)" points="232.072,209.773 151.927,146.502 152.701,69.193 241.292,108.101 	"/>
	<polygon fill="#E4BC96" points="115.499,249.772 60.6,167.31 151.927,146.502 232.072,209.773 	"/>
	<linearGradient id="SVGID_3_" gradientUnits="userSpaceOnUse" x1="69.4199" y1="103.5166" x2="100.6261" y2="189.7589">
		<stop  offset="0.0056" style="stop-color:#8B5C29"/>
		<stop  offset="1" style="stop-color:#D59758"/>
	</linearGradient>
	<polygon fill="url(#SVGID_3_)" points="115.499,249.772 60.6,167.31 53.924,81.962 112.404,134.134 	"/>
	<linearGradient id="SVGID_4_" gradientUnits="userSpaceOnUse" x1="119.4624" y1="236.499" x2="195.3045" y2="143.7423">
		<stop  offset="0" style="stop-color:#DDAC7B"/>
		<stop  offset="1" style="stop-color:#8B5C29"/>
	</linearGradient>
	<polygon fill="url(#SVGID_4_)" points="241.292,108.101 232.072,209.773 115.499,249.772 112.404,134.134 	"/>
	<linearGradient id="SVGID_5_" gradientUnits="userSpaceOnUse" x1="114.9658" y1="70.7661" x2="39.936" y2="44.8942">
		<stop  offset="0" style="stop-color:#DDAC7B"/>
		<stop  offset="1" style="stop-color:#D59758"/>
	</linearGradient>
	<polygon fill="url(#SVGID_5_)" points="152.701,69.193 125.652,42.207 32.39,49.504 53.924,81.962 	"/>
	<polygon fill="#D59758" points="241.292,108.101 287.426,80.988 197.378,49.884 152.701,69.193 	"/>
	<linearGradient id="SVGID_6_" gradientUnits="userSpaceOnUse" x1="79.6123" y1="116.2451" x2="0.8743" y2="89.0946">
		<stop  offset="0" style="stop-color:#DDAC7B"/>
		<stop  offset="1" style="stop-color:#D59758"/>
	</linearGradient>
	<polygon fill="url(#SVGID_6_)" points="112.481,134.114 54.603,82.258 0,73.5 45.783,129.943 	"/>
	<g>
		<polygon fill="#D59758" points="111.893,134.134 114.912,249.792 116.086,249.751 113.07,134.094 		"/>
	</g>
	<g>
		<polygon fill="#BC7F48" points="152.116,69.186 151.498,129.737 152.675,129.753 153.291,69.202 		"/>
	</g>
	<linearGradient id="SVGID_7_" gradientUnits="userSpaceOnUse" x1="233.1963" y1="145.1543" x2="129.2805" y2="109.3219">
		<stop  offset="0" style="stop-color:#DDAC7B"/>
		<stop  offset="1" style="stop-color:#D59758"/>
	</linearGradient>
	<polygon fill="url(#SVGID_7_)" points="241.292,108.101 292,124.004 154.144,159.322 112.481,134.114 	"/>
</g>
</svg>
